[
    { "title":"Home", "content": "<div class=\"container\">\r\n  <div class=\"row\">\r\n    <div class=\"col-sm\">\r\n      One of three columns ipsum\r\n    <\/div>\r\n    <div class=\"col-sm\">\r\n      One of three columns\r\n    <\/div>\r\n    <div class=\"col-sm\">\r\n      One of three columns\r\n    <\/div>\r\n  <\/div>\r\n<\/div>", "id":1},
    { "title":"Blog", "content": "ipsum blog", "id":2},
    { "title":"Features", "content": "ipsum features", "id":3},
    { "title":"Contact", "content": "ipsum contact", "id":4}
]
